…
      # We have things like table but we have 15 of them (we have tables 1 - 15)
      # But now we have too much stuff
  .[[1]] %>% # adding "list" - [[1]] give me first element (table)
      # we see "table 1, marijuana use in past year" - we have right thing
  html_table() %>%  # converting html code into table
      # View looks almost right
  slice(-1) %>% 
      # only case we use slice - bad function; slice lets us access rows of dataset by   
      # number
      # we don't want to filter rows by row # just in case we change and add data later
      # prefer to use filter
  as_tibble()
```

    ## # A tibble: 56 x 16
    ##    State `12+(2013-2014)` `12+(2014-2015)` `12+(P Value)` `12-17(2013-201…
    ##    <chr> <chr>            <chr>            <chr>          <chr>           
    ##  1 Tota… 12.90a           13.36            0.002          13.28b          
    ##  2 Nort… 13.88a           14.66            0.005          13.98           
    ##  3 Midw… 12.40b           12.76            0.082          12.45           
    ##  4 South 11.24a           11.64            0.029          12.02           
    ##  5 West  15.27            15.62            0.262          15.53a          
    ##  6 Alab… 9.98             9.60             0.426          9.90            
    ##  7 Alas… 19.60a           21.92            0.010          17.30           
    ##  8 Ariz… 13.69            13.12            0.364          15.12           
    ##  9 Arka… 11.37            11.59            0.678          12.79           
    ## 10 Cali… 14.49            15.25            0.103          15.03           
    ## # ... with 46 more rows, and 11 more variables: `12-17(2014-2015)` <chr>,
    ## #   `12-17(P Value)` <chr>, `18-25(2013-2014)` <chr>,
    ## #   `18-25(2014-2015)` <chr>, `18-25(P Value)` <chr>,
    ## #   `26+(2013-2014)` <chr>, `26+(2014-2015)` <chr>, `26+(P Value)` <chr>,
    ## #   `18+(2013-2014)` <chr>, `18+(2014-2015)` <chr>, `18+(P Value)` <chr>
